{
  "task"                       : "Quality Assessment"
  ,"assess_type"               : "Image"
  ,"ori_bit_depth"             : 10 
  , "dec_yuv_video_path"       :"/userhome/share_hosts/IQA_codec/test_yuv_video/dec_Crew_LD_37_rap0.yuv"
  , "ori_yuv_video_path"       :"/userhome/share_hosts/IQA_codec/test_yuv_video/Crew_1280x720_60.yuv"
  ,"image":{
       "gpu_ids"                  : [0]
      , "yuv_dim"                  :[2160,3840]
      ,"startfrm"                  :0
      ,"numfrm"                  :5
      ,"image_log_file"            :"./log/log_image_file.txt" 
      ,"save_ok"                   : false
      ,"RGB_mode"                  : false
      ,"verbose"                   : false
      ,"Algorithm_set"             : ["awds","psnr","ssim","vif","msssim","fsim","nlpd","mad","iwssim","dists","lipis"]
      
 }
  
  , "video":{
        "video_log_file"            :"./log/log_video_file.txt" 
        ,"DVQA":{
            "enable"                :false
            ,"video_dir"            :"./data/videos"
            ,"load_model"           :"./DVQA/save/model_videoset_v3.pt"
            ,"score_file_path"      :"./data/videos.json"
            ,"channel"              :1
            ,"size_x"               :112
            ,"size_y"               :112
            ,"stride_x"             :80
            ,"stride_y"             :80

        }
       ,"Vmeon":{
            "enable"                :true
            ,"use_cuda"             :true
            ,"num_workers"          :4
            ,"ckpt"                 :"./VMEON_release.pt"
            ,"stride"               :128
            ,"test_vid"             :"/userhome/share_hosts/hpm_cluster-HPM_v2/LD_2s_yuv_test/dec_Crew_LD_37_rap0.yuv"
            ,"width"                :3840
            ,"height"               :2160
            ,"fps"                  :25
            ,"pix_fmt"              :"yuv420p"
       }
      ,"Vmaf":{
          "enable"                  :false
          ,"cmd"                    :true
          ,"tool"                   :"ffmpeg"
          ,"size_dec"               :"3840x2160"
          ,"size_ori"               :"3840x2160"
          ,"filter_type"            :"-lavfi"
          ,"libvmaf"                :"libvmaf=model_path=/userhome/share_hosts/IQA_codec/CAC_EVE/vmaf_models/vmaf_v0.6.1.json:log_fmt=xml:log_path=./log/vmaf.xml"
          ,"end"                    :"-f null -"
      }
  }
    
}
